…
#Calculating yearly returns
myStocks_annual_returns <- myStocks %>%
  group_by(symbol) %>%
  tq_transmute(select     = adjusted, 
               mutate_fun = periodReturn, 
               period     = "yearly", 
               type       = "arithmetic",
               col_rename = "yearly_returns",
               cols = c(nested.col))

#Printing the returns calculated above
myStocks_daily_returns

## # A tibble: 21,486 x 3
## # Groups:   symbol [8]
##    symbol date       daily_returns
##    <chr>  <date>             <dbl>
##  1 AAPL   2010-01-04       0      
##  2 AAPL   2010-01-05       0.00173
##  3 AAPL   2010-01-06      -0.0160 
##  4 AAPL   2010-01-07      -0.00185
##  5 AAPL   2010-01-08       0.00663
##  6 AAPL   2010-01-11      -0.00886
##  7 AAPL   2010-01-12      -0.0114 
##  8 AAPL   2010-01-13       0.0140 
##  9 AAPL   2010-01-14      -0.00581
## 10 AAPL   2010-01-15      -0.0169 
## # … with 21,476 more rows
…
