…
#Preparation for left join 
life_expectancy_tidy$date <- as.double(life_expectancy_tidy$date)
hiv_tidy$date <- as.double(hiv_tidy$date)

#Left join the data frames
three_combined <- left_join(worldbank_data,life_expectancy_tidy) %>%
  left_join(.,hiv_tidy) %>%
   mutate(region= countrycode(sourcevar = country, origin = "country.name",destination = "region"))

three_combined

## # A tibble: 12,369 x 11
##    iso2c iso3c country  date NY.GDP.PCAP.KD SE.PRM.NENR SH.DYN.MORT
##    <chr> <chr> <chr>   <dbl>          <dbl>       <dbl>       <dbl>
##  1 AW    ABW   Aruba    1960             NA          NA          NA
##  2 AW    ABW   Aruba    1961             NA          NA          NA
##  3 AW    ABW   Aruba    1962             NA          NA          NA
##  4 AW    ABW   Aruba    1963             NA          NA          NA
##  5 AW    ABW   Aruba    1964             NA          NA          NA
##  6 AW    ABW   Aruba    1965             NA          NA          NA
##  7 AW    ABW   Aruba    1966             NA          NA          NA
##  8 AW    ABW   Aruba    1967             NA          NA          NA
##  9 AW    ABW   Aruba    1968             NA          NA          NA
## 10 AW    ABW   Aruba    1969             NA          NA          NA
## # … with 12,359 more rows, and 4 more variables: SP.DYN.TFRT.IN <dbl>,
## #   life_expectancy <dbl>, hiv_prevalence <dbl>, region <chr>
…
